%YAML 1.1
%TAG !u! tag:unity3d.com,2011:
--- !u!74 &7400000
AnimationClip:
  m_ObjectHideFlags: 0
  m_CorrespondingSourceObject: {fileID: 0}
  m_PrefabInstance: {fileID: 0}
  m_PrefabAsset: {fileID: 0}
  m_Name: book1_idle
  serializedVersion: 6
  m_Legacy: 0
  m_Compressed: 0
  m_UseHighQualityCurve: 1
  m_RotationCurves: []
  m_CompressedRotationCurves: []
  m_EulerCurves: []
  m_PositionCurves: []
  m_ScaleCurves: []
  m_FloatCurves: []
  m_PPtrCurves:
  - curve:
    - time: 0
      value: {fileID: 7251718121682714602, guid: c22edacf83f2e1a4f8f6a56cda919981, type: 3}
    - time: 0.083333336
      value: {fileID: 5205741295823838449, guid: c22edacf83f2e1a4f8f6a56cda919981, type: 3}
    - time: 0.21666667
      value: {fileID: -1235432292929074012, guid: c22edacf83f2e1a4f8f6a56cda919981, type: 3}
    - time: 0.33333334
      value: {fileID: -3291349006392701137, guid: c22edacf83f2e1a4f8f6a56cda919981, type: 3}
    - time: 0.43333334
      value: {fileID: 2106550864973454890, guid: c22edacf83f2e1a4f8f6a56cda919981, type: 3}
    - time: 0.55
      value: {fileID: 7916411950201766488, guid: c22edacf83f2e1a4f8f6a56cda919981, type: 3}
    - time: 0.65
      value: {fileID: -8079888379052181508, guid: c22edacf83f2e1a4f8f6a56cda919981, type: 3}
    - time: 0.76666665
      value: {fileID: -6079632763349693633, guid: c22edacf83f2e1a4f8f6a56cda919981, type: 3}
    - time: 0.9
      value: {fileID: -6503717779262866876, guid: c22edacf83f2e1a4f8f6a56cda919981, type: 3}
    - time: 0.98333335
      value: {fileID: -4061570481347002810, guid: c22edacf83f2e1a4f8f6a56cda919981, type: 3}
    attribute: m_Sprite
    path: 
    classID: 212
    script: {fileID: 0}
  m_SampleRate: 60
  m_WrapMode: 0
  m_Bounds:
    m_Center: {x: 0, y: 0, z: 0}
    m_Extent: {x: 0, y: 0, z: 0}
  m_ClipBindingConstant:
    genericBindings:
    - serializedVersion: 2
      path: 0
      attribute: 0
      script: {fileID: 0}
      typeID: 212
      customType: 23
      isPPtrCurve: 1
    pptrCurveMapping:
    - {fileID: 7251718121682714602, guid: c22edacf83f2e1a4f8f6a56cda919981, type: 3}
    - {fileID: 5205741295823838449, guid: c22edacf83f2e1a4f8f6a56cda919981, type: 3}
    - {fileID: -1235432292929074012, guid: c22edacf83f2e1a4f8f6a56cda919981, type: 3}
    - {fileID: -3291349006392701137, guid: c22edacf83f2e1a4f8f6a56cda919981, type: 3}
    - {fileID: 2106550864973454890, guid: c22edacf83f2e1a4f8f6a56cda919981, type: 3}
    - {fileID: 7916411950201766488, guid: c22edacf83f2e1a4f8f6a56cda919981, type: 3}
    - {fileID: -8079888379052181508, guid: c22edacf83f2e1a4f8f6a56cda919981, type: 3}
    - {fileID: -6079632763349693633, guid: c22edacf83f2e1a4f8f6a56cda919981, type: 3}
    - {fileID: -6503717779262866876, guid: c22edacf83f2e1a4f8f6a56cda919981, type: 3}
    - {fileID: -4061570481347002810, guid: c22edacf83f2e1a4f8f6a56cda919981, type: 3}
  m_AnimationClipSettings:
    serializedVersion: 2
    m_AdditiveReferencePoseClip: {fileID: 0}
    m_AdditiveReferencePoseTime: 0
    m_StartTime: 0
    m_StopTime: 1
    m_OrientationOffsetY: 0
    m_Level: 0
    m_CycleOffset: 0
    m_HasAdditiveReferencePose: 0
    m_LoopTime: 1
    m_LoopBlend: 0
    m_LoopBlendOrientation: 0
    m_LoopBlendPositionY: 0
    m_LoopBlendPositionXZ: 0
    m_KeepOriginalOrientation: 0
    m_KeepOriginalPositionY: 1
    m_KeepOriginalPositionXZ: 0
    m_HeightFromFeet: 0
    m_Mirror: 0
  m_EditorCurves: []
  m_EulerEditorCurves: []
  m_HasGenericRootTransform: 0
  m_HasMotionFloatCurves: 0
  m_Events: []
